alu_out.vcd
$date
	Sat Nov 23 11:49:36 2019
$end
$version
	Icarus Verilog
$end
$timescale
	1ps
$end
$scope module tb_ALU $end
$var wire 32 ! result [31:0] $end
$var wire 1 " ZERO $end
$var reg 32 # A [31:0] $end
$var reg 32 $ B [31:0] $end
$var reg 3 % alu_cs [2:0] $end
$scope module uut $end
$var wire 32 & A [31:0] $end
$var wire 32 ' B [31:0] $end
$var wire 3 ( alu_cs [2:0] $end
$var reg 1 " ZERO $end
$var reg 32 ) result [31:0] $end
$upscope $end
$upscope $end
$enddefinitions $end
#0
$dumpvars
b11000 )
b0 (
b11001 '
b11110 &
b0 %
b11001 $
b11110 #
x"
b11000 !
$end
#50000
b11111 !
b11111 )
b1 %
b1 (
#100000
b110111 !
b110111 )
b10 %
b10 (
#150000
b101 !
b101 )
b11 %
b11 (
#200000
b11000 !
b11000 )
b0 %
b0 (
#250000
b11111 !
b11111 )
b1 %
b1 (
#300000
b110111 !
b110111 )
b10 %
b10 (
#350000
b101 !
b101 )
b11 %
b11 (
#400000
b11000 !
b11000 )
b0 %
b0 (
#450000
b11111 !
b11111 )
b1 %
b1 (
#500000
b110111 !
b110111 )
b10 %
b10 (
#550000
b101 !
b101 )
b11 %
b11 (
#600000
b11000 !
b11000 )
b0 %
b0 (
#650000
b11111 !
b11111 )
b1 %
b1 (
#700000
b110111 !
b110111 )
b10 %
b10 (
#750000
b101 !
b101 )
b11 %
b11 (
#800000
b11000 !
b11000 )
b0 %
b0 (
#850000
b11111 !
b11111 )
b1 %
b1 (
#900000
b110111 !
b110111 )
b10 %
b10 (
#950000
b101 !
b101 )
b11 %
b11 (
#1000000
b11000 !
b11000 )
b0 %
b0 (
#1050000
b11111 !
b11111 )
b1 %
b1 (
#1100000
b110111 !
b110111 )
b10 %
b10 (
#1150000
b101 !
b101 )
b11 %
b11 (
#1200000
b11000 !
b11000 )
b0 %
b0 (
#1250000
b11111 !
b11111 )
b1 %
b1 (
#1300000
b110111 !
b110111 )
b10 %
b10 (
#1350000
b101 !
b101 )
b11 %
b11 (
#1400000
b11000 !
b11000 )
b0 %
b0 (
#1450000
b11111 !
b11111 )
b1 %
b1 (
#1500000
b110111 !
b110111 )
b10 %
b10 (
#1550000
b101 !
b101 )
b11 %
b11 (
#1600000
b11000 !
b11000 )
b0 %
b0 (
#1650000
b11111 !
b11111 )
b1 %
b1 (
#1700000
b110111 !
b110111 )
b10 %
b10 (
#1750000
b101 !
b101 )
b11 %
b11 (
#1800000
b11000 !
b11000 )
b0 %
b0 (
#1850000
b11111 !
b11111 )
b1 %
b1 (
#1900000
b110111 !
b110111 )
b10 %
b10 (
#1950000
b101 !
b101 )
b11 %
b11 (
#2000000
b11000 !
b11000 )
b0 %
b0 (
#2050000
b11111 !
b11111 )
b1 %
b1 (
#2100000
b110111 !
b110111 )
b10 %
b10 (
#2150000
b101 !
b101 )
b11 %
b11 (
#2200000
b11000 !
b11000 )
b0 %
b0 (
#2250000
b11111 !
b11111 )
b1 %
b1 (
#2300000
b110111 !
b110111 )
b10 %
b10 (
#2350000
b101 !
b101 )
b11 %
b11 (
#2400000
b11000 !
b11000 )
b0 %
b0 (
#2450000
b11111 !
b11111 )
b1 %
b1 (
#2500000
b110111 !
b110111 )
b10 %
b10 (
#2550000
b101 !
b101 )
b11 %
b11 (
#2600000
b11000 !
b11000 )
b0 %
b0 (
#2650000
b11111 !
b11111 )
b1 %
b1 (
#2700000
b110111 !
b110111 )
b10 %
b10 (
#2750000
b101 !
b101 )
b11 %
b11 (
#2800000
b11000 !
b11000 )
b0 %
b0 (
#2850000
b11111 !
b11111 )
b1 %
b1 (
#2900000
b110111 !
b110111 )
b10 %
b10 (
#2950000
b101 !
b101 )
b11 %
b11 (
#3000000
b11000 !
b11000 )
b0 %
b0 (
#3050000
b11111 !
b11111 )
b1 %
b1 (
#3100000
b110111 !
b110111 )
b10 %
b10 (
#3150000
b101 !
b101 )
b11 %
b11 (
#3200000
b11000 !
b11000 )
b0 %
b0 (
#3250000
b11111 !
b11111 )
b1 %
b1 (
#3300000
b110111 !
b110111 )
b10 %
b10 (
#3350000
b101 !
b101 )
b11 %
b11 (
#3400000
b11000 !
b11000 )
b0 %
b0 (
#3450000
b11111 !
b11111 )
b1 %
b1 (
#3500000
b110111 !
b110111 )
b10 %
b10 (
#3550000
b101 !
b101 )
b11 %
b11 (
#3600000
b11000 !
b11000 )
b0 %
b0 (
#3650000
b11111 !
b11111 )
b1 %
b1 (
#3700000
b110111 !
b110111 )
b10 %
b10 (
#3750000
b101 !
b101 )
b11 %
b11 (
#3800000
b11000 !
b11000 )
b0 %
b0 (
#3850000
b11111 !
b11111 )
b1 %
b1 (
#3900000
b110111 !
b110111 )
b10 %
b10 (
#3950000
b101 !
b101 )
b11 %
b11 (
#4000000
b11000 !
b11000 )
b0 %
b0 (
#4050000
b11111 !
b11111 )
b1 %
b1 (
#4100000
b110111 !
b110111 )
b10 %
b10 (
#4150000
b101 !
b101 )
b11 %
b11 (
#4200000
b11000 !
b11000 )
b0 %
b0 (
#4250000
b11111 !
b11111 )
b1 %
b1 (
#4300000
b110111 !
b110111 )
b10 %
b10 (
#4350000
b101 !
b101 )
b11 %
b11 (
#4400000
b11000 !
b11000 )
b0 %
b0 (
#4450000
b11111 !
b11111 )
b1 %
b1 (
#4500000
b110111 !
b110111 )
b10 %
b10 (
#4550000
b101 !
b101 )
b11 %
b11 (
#4600000
b11000 !
b11000 )
b0 %
b0 (
#4650000
b11111 !
b11111 )
b1 %
b1 (
#4700000
b110111 !
b110111 )
b10 %
b10 (
#4750000
b101 !
b101 )
b11 %
b11 (
#4800000
b11000 !
b11000 )
b0 %
b0 (
#4850000
b11111 !
b11111 )
b1 %
b1 (
#4900000
b110111 !
b110111 )
b10 %
b10 (
#4950000
b101 !
b101 )
b11 %
b11 (
#5000000
b11000 !
b11000 )
b0 %
b0 (
#5050000
b11111 !
b11111 )
b1 %
b1 (
#5100000
b110111 !
b110111 )
b10 %
b10 (
#5150000
b101 !
b101 )
b11 %
b11 (
#5200000
b11000 !
b11000 )
b0 %
b0 (
#5250000
b11111 !
b11111 )
b1 %
b1 (
#5300000
b110111 !
b110111 )
b10 %
b10 (
#5350000
b101 !
b101 )
b11 %
b11 (
#5400000
b11000 !
b11000 )
b0 %
b0 (
#5450000
b11111 !
b11111 )
b1 %
b1 (
#5500000
b110111 !
b110111 )
b10 %
b10 (
#5550000
b101 !
b101 )
b11 %
b11 (
#5600000
b11000 !
b11000 )
b0 %
b0 (
#5650000
b11111 !
b11111 )
b1 %
b1 (
#5700000
b110111 !
b110111 )
b10 %
b10 (
#5750000
b101 !
b101 )
b11 %
b11 (
#5800000
b11000 !
b11000 )
b0 %
b0 (
#5850000
b11111 !
b11111 )
b1 %
b1 (
#5900000
b110111 !
b110111 )
b10 %
b10 (
#5950000
b101 !
b101 )
b11 %
b11 (
#6000000
b11000 !
b11000 )
b0 %
b0 (
#6050000
b11111 !
b11111 )
b1 %
b1 (
#6100000
b110111 !
b110111 )
b10 %
b10 (
#6150000
b101 !
b101 )
b11 %
b11 (
#6200000
b11000 !
b11000 )
b0 %
b0 (
#6250000
b11111 !
b11111 )
b1 %
b1 (
#6300000
b110111 !
b110111 )
b10 %
b10 (
#6350000
b101 !
b101 )
b11 %
b11 (
#6400000
b11000 !
b11000 )
b0 %
b0 (
#6450000
b11111 !
b11111 )
b1 %
b1 (
#6500000
b110111 !
b110111 )
b10 %
b10 (
#6550000
b101 !
b101 )
b11 %
b11 (
#6600000
b11000 !
b11000 )
b0 %
b0 (
#6650000
b11111 !
b11111 )
b1 %
b1 (
#6700000
b110111 !
b110111 )
b10 %
b10 (
#6750000
b101 !
b101 )
b11 %
b11 (
#6800000
b11000 !
b11000 )
b0 %
b0 (
#6850000
b11111 !
b11111 )
b1 %
b1 (
#6900000
b110111 !
b110111 )
b10 %
b10 (
#6950000
b101 !
b101 )
b11 %
b11 (
#7000000
b11000 !
b11000 )
b0 %
b0 (
#7050000
b11111 !
b11111 )
b1 %
b1 (
#7100000
b110111 !
b110111 )
b10 %
b10 (
#7150000
b101 !
b101 )
b11 %
b11 (
#7200000
b11000 !
b11000 )
b0 %
b0 (
#7250000
b11111 !
b11111 )
b1 %
b1 (
#7300000
b110111 !
b110111 )
b10 %
b10 (
#7350000
b101 !
b101 )
b11 %
b11 (
#7400000
b11000 !
b11000 )
b0 %
b0 (
#7450000
b11111 !
b11111 )
b1 %
b1 (
#7500000
b110111 !
b110111 )
b10 %
b10 (
#7550000
b101 !
b101 )
b11 %
b11 (
#7600000
b11000 !
b11000 )
b0 %
b0 (
#7650000
b11111 !
b11111 )
b1 %
b1 (
#7700000
b110111 !
b110111 )
b10 %
b10 (
#7750000
b101 !
b101 )
b11 %
b11 (
#7800000
b11000 !
b11000 )
b0 %
b0 (
#7850000
b11111 !
b11111 )
b1 %
b1 (
#7900000
b110111 !
b110111 )
b10 %
b10 (
#7950000
b101 !
b101 )
b11 %
b11 (
#8000000
b11000 !
b11000 )
b0 %
b0 (
#8050000
b11111 !
b11111 )
b1 %
b1 (
#8100000
b110111 !
b110111 )
b10 %
b10 (
#8150000
b101 !
b101 )
b11 %
b11 (
#8200000
b11000 !
b11000 )
b0 %
b0 (
#8250000
b11111 !
b11111 )
b1 %
b1 (
#8300000
b110111 !
b110111 )
b10 %
b10 (
#8350000
b101 !
b101 )
b11 %
b11 (
#8400000
b11000 !
b11000 )
b0 %
b0 (
#8450000
b11111 !
b11111 )
b1 %
b1 (
#8500000
b110111 !
b110111 )
b10 %
b10 (
#8550000
b101 !
b101 )
b11 %
b11 (
#8600000
b11000 !
b11000 )
b0 %
b0 (
#8650000
b11111 !
b11111 )
b1 %
b1 (
#8700000
b110111 !
b110111 )
b10 %
b10 (
#8750000
b101 !
b101 )
b11 %
b11 (
#8800000
b11000 !
b11000 )
b0 %
b0 (
#8850000
b11111 !
b11111 )
b1 %
b1 (
#8900000
b110111 !
b110111 )
b10 %
b10 (
#8950000
b101 !
b101 )
b11 %
b11 (
#9000000
b11000 !
b11000 )
b0 %
b0 (
#9050000
b11111 !
b11111 )
b1 %
b1 (
#9100000
b110111 !
b110111 )
b10 %
b10 (
#9150000
b101 !
b101 )
b11 %
b11 (
#9200000
b11000 !
b11000 )
b0 %
b0 (
#9250000
b11111 !
b11111 )
b1 %
b1 (
#9300000
b110111 !
b110111 )
b10 %
b10 (
#9350000
b101 !
b101 )
b11 %
b11 (
#9400000
b11000 !
b11000 )
b0 %
b0 (
#9450000
b11111 !
b11111 )
b1 %
b1 (
#9500000
b110111 !
b110111 )
b10 %
b10 (
#9550000
b101 !
b101 )
b11 %
b11 (
#9600000
b11000 !
b11000 )
b0 %
b0 (
#9650000
b11111 !
b11111 )
b1 %
b1 (
#9700000
b110111 !
b110111 )
b10 %
b10 (
#9750000
b101 !
b101 )
b11 %
b11 (
#9800000
b11000 !
b11000 )
b0 %
b0 (
#9850000
b11111 !
b11111 )
b1 %
b1 (
#9900000
b110111 !
b110111 )
b10 %
b10 (
#9950000
b101 !
b101 )
b11 %
b11 (
#10000000
b11000 !
b11000 )
b0 %
b0 (
#10050000
b11111 !
b11111 )
b1 %
b1 (
#10100000
b110111 !
b110111 )
b10 %
b10 (
#10150000
b101 !
b101 )
b11 %
b11 (
#10200000
b11000 !
b11000 )
b0 %
b0 (
#10250000
b11111 !
b11111 )
b1 %
b1 (
#10300000
b110111 !
b110111 )
b10 %
b10 (
#10350000
b101 !
b101 )
b11 %
b11 (
#10400000
b11000 !
b11000 )
b0 %
b0 (
#10450000
b11111 !
b11111 )
b1 %
b1 (
#10500000
b110111 !
b110111 )
b10 %
b10 (
#10550000
b101 !
b101 )
b11 %
b11 (
#10600000
b11000 !
b11000 )
b0 %
b0 (
#10650000
b11111 !
b11111 )
b1 %
b1 (
#10700000
b110111 !
b110111 )
b10 %
b10 (
#10750000
b101 !
b101 )
b11 %
b11 (
#10800000
b11000 !
b11000 )
b0 %
b0 (
#10850000
b11111 !
b11111 )
b1 %
b1 (
#10900000
b110111 !
b110111 )
b10 %
b10 (
#10950000
b101 !
b101 )
b11 %
b11 (
#11000000
b11000 !
b11000 )
b0 %
b0 (
#11050000
b11111 !
b11111 )
b1 %
b1 (
#11100000
b110111 !
b110111 )
b10 %
b10 (
#11150000
b101 !
b101 )
b11 %
b11 (
#11200000
b11000 !
b11000 )
b0 %
b0 (
#11250000
b11111 !
b11111 )
b1 %
b1 (
#11300000
b110111 !
b110111 )
b10 %
b10 (
#11350000
b101 !
b101 )
b11 %
b11 (
#11400000
b11000 !
b11000 )
b0 %
b0 (
#11450000
b11111 !
b11111 )
b1 %
b1 (
#11500000
b110111 !
b110111 )
b10 %
b10 (
#11550000
b101 !
b101 )
b11 %
b11 (
#11600000
b11000 !
b11000 )
b0 %
b0 (
#11650000
b11111 !
b11111 )
b1 %
b1 (
#11700000
b110111 !
b110111 )
b10 %
b10 (
#11750000
b101 !
b101 )
b11 %
b11 (
#11800000
b11000 !
b11000 )
b0 %
b0 (
#11850000
b11111 !
b11111 )
b1 %
b1 (
#11900000
b110111 !
b110111 )
b10 %
b10 (
#11950000
b101 !
b101 )
b11 %
b11 (
#12000000
b11000 !
b11000 )
b0 %
b0 (
#12050000
b11111 !
b11111 )
b1 %
b1 (
#12100000
b110111 !
b110111 )
b10 %
b10 (
#12150000
b101 !
b101 )
b11 %
b11 (
#12200000
b11000 !
b11000 )
b0 %
b0 (
#12250000
b11111 !
b11111 )
b1 %
b1 (
#12300000
b110111 !
b110111 )
b10 %
b10 (
#12350000
b101 !
b101 )
b11 %
b11 (
#12400000
b11000 !
b11000 )
b0 %
b0 (
#12450000
b11111 !
b11111 )
b1 %
b1 (
#12500000
b110111 !
b110111 )
b10 %
b10 (
#12550000
b101 !
b101 )
b11 %
b11 (
#12600000
b11000 !
b11000 )
b0 %
b0 (
#12650000
b11111 !
b11111 )
b1 %
b1 (
#12700000
b110111 !
b110111 )
b10 %
b10 (
#12750000
b101 !
b101 )
b11 %
b11 (
#12800000
b11000 !
b11000 )
b0 %
b0 (
#12850000
b11111 !
b11111 )
b1 %
b1 (
#12900000
b110111 !
b110111 )
b10 %
b10 (
#12950000
b101 !
b101 )
b11 %
b11 (
#13000000
b11000 !
b11000 )
b0 %
b0 (
#13050000
b11111 !
b11111 )
b1 %
b1 (
#13100000
b110111 !
b110111 )
b10 %
b10 (
#13150000
b101 !
b101 )
b11 %
b11 (
#13200000
b11000 !
b11000 )
b0 %
b0 (
#13250000
b11111 !
b11111 )
b1 %
b1 (
#13300000
b110111 !
b110111 )
b10 %
b10 (
#13350000
b101 !
b101 )
b11 %
b11 (
#13400000
b11000 !
b11000 )
b0 %
b0 (
#13450000
b11111 !
b11111 )
b1 %
b1 (
#13500000
b110111 !
b110111 )
b10 %
b10 (
#13550000
b101 !
b101 )
b11 %
b11 (
#13600000
b11000 !
b11000 )
b0 %
b0 (
#13650000
b11111 !
b11111 )
b1 %
b1 (
#13700000
b110111 !
b110111 )
b10 %
b10 (
#13750000
b101 !
b101 )
b11 %
b11 (
#13800000
b11000 !
b11000 )
b0 %
b0 (
#13850000
b11111 !
b11111 )
b1 %
b1 (
#13900000
b110111 !
b110111 )
b10 %
b10 (
#13950000
b101 !
b101 )
b11 %
b11 (
#14000000
b11000 !
b11000 )
b0 %
b0 (
#14050000
b11111 !
b11111 )
b1 %
b1 (
#14100000
b110111 !
b110111 )
b10 %
b10 (
#14150000
b101 !
b101 )
b11 %
b11 (
#14200000
b11000 !
b11000 )
b0 %
b0 (
#14250000
b11111 !
b11111 )
b1 %
b1 (
#14300000
b110111 !
b110111 )
b10 %
b10 (
#14350000
b101 !
b101 )
b11 %
b11 (
#14400000
b11000 !
b11000 )
b0 %
b0 (
#14450000
b11111 !
b11111 )
b1 %
b1 (
#14500000
b110111 !
b110111 )
b10 %
b10 (
#14550000
b101 !
b101 )
b11 %
b11 (
#14600000
b11000 !
b11000 )
b0 %
b0 (
#14650000
b11111 !
b11111 )
b1 %
b1 (
#14700000
b110111 !
b110111 )
b10 %
b10 (
#14750000
b101 !
b101 )
b11 %
b11 (
#14800000
b11000 !
b11000 )
b0 %
b0 (
#14850000
b11111 !
b11111 )
b1 %
b1 (
#14900000
b110111 !
b110111 )
b10 %
b10 (
#14950000
b101 !
b101 )
b11 %
b11 (
#15000000
b11000 !
b11000 )
b0 %
b0 (
#15050000
b11111 !
b11111 )
b1 %
b1 (
#15100000
b110111 !
b110111 )
b10 %
b10 (
#15150000
b101 !
b101 )
b11 %
b11 (
#15200000
b11000 !
b11000 )
b0 %
b0 (
#15250000
b11111 !
b11111 )
b1 %
b1 (
#15300000
b110111 !
b110111 )
b10 %
b10 (
#15350000
b101 !
b101 )
b11 %
b11 (
#15400000
b11000 !
b11000 )
b0 %
b0 (
#15450000
b11111 !
b11111 )
b1 %
b1 (
#15500000
b110111 !
b110111 )
b10 %
b10 (
#15550000
b101 !
b101 )
b11 %
b11 (
#15600000
b11000 !
b11000 )
b0 %
b0 (
#15650000
b11111 !
b11111 )
b1 %
b1 (
#15700000
b110111 !
b110111 )
b10 %
b10 (
#15750000
b101 !
b101 )
b11 %
b11 (
#15800000
b11000 !
b11000 )
b0 %
b0 (
#15850000
b11111 !
b11111 )
b1 %
b1 (
#15900000
b110111 !
b110111 )
b10 %
b10 (
#15950000
b101 !
b101 )
b11 %
b11 (
#16000000
b11000 !
b11000 )
b0 %
b0 (
#16050000
b11111 !
b11111 )
b1 %
b1 (
#16100000
b110111 !
b110111 )
b10 %
b10 (
#16150000
b101 !
b101 )
b11 %
b11 (
#16200000
b11000 !
b11000 )
b0 %
b0 (
#16250000
b11111 !
b11111 )
b1 %
b1 (
#16300000
b110111 !
b110111 )
b10 %
b10 (
#16350000
b101 !
b101 )
b11 %
b11 (
#16400000
b11000 !
b11000 )
b0 %
b0 (
#16450000
b11111 !
b11111 )
b1 %
b1 (
#16500000
b110111 !
b110111 )
b10 %
b10 (
#16550000
b101 !
b101 )
b11 %
b11 (
#16600000
b11000 !
b11000 )
b0 %
b0 (
#16650000
b11111 !
b11111 )
b1 %
b1 (
#16700000
b110111 !
b110111 )
b10 %
b10 (
#16750000
b101 !
b101 )
b11 %
b11 (
#16800000
b11000 !
b11000 )
b0 %
b0 (
#16850000
b11111 !
b11111 )
b1 %
b1 (
#16900000
b110111 !
b110111 )
b10 %
b10 (
#16950000
b101 !
b101 )
b11 %
b11 (
#17000000
b11000 !
b11000 )
b0 %
b0 (
#17050000
b11111 !
b11111 )
b1 %
b1 (
#17100000
b110111 !
b110111 )
b10 %
b10 (
#17150000
b101 !
b101 )
b11 %
b11 (
#17200000
b11000 !
b11000 )
b0 %
b0 (
#17250000
b11111 !
b11111 )
b1 %
b1 (
#17300000
b110111 !
b110111 )
b10 %
b10 (
#17350000
b101 !
b101 )
b11 %
b11 (
#17400000
b11000 !
b11000 )
b0 %
b0 (
#17450000
b11111 !
b11111 )
b1 %
b1 (
#17500000
b110111 !
b110111 )
b10 %
b10 (
#17550000
b101 !
b101 )
b11 %
b11 (
#17600000
b11000 !
b11000 )
b0 %
b0 (
#17650000
b11111 !
b11111 )
b1 %
b1 (
#17700000
b110111 !
b110111 )
b10 %
b10 (
#17750000
b101 !
b101 )
b11 %
b11 (
#17800000
b11000 !
b11000 )
b0 %
b0 (
#17850000
b11111 !
b11111 )
b1 %
b1 (
#17900000
b110111 !
b110111 )
b10 %
b10 (
#17950000
b101 !
b101 )
b11 %
b11 (
#18000000
b11000 !
b11000 )
b0 %
b0 (
#18050000
b11111 !
b11111 )
b1 %
b1 (
#18100000
b110111 !
b110111 )
b10 %
b10 (
#18150000
b101 !
b101 )
b11 %
b11 (
#18200000
b11000 !
b11000 )
b0 %
b0 (
#18250000
b11111 !
b11111 )
b1 %
b1 (
#18300000
b110111 !
b110111 )
b10 %
b10 (
#18350000
b101 !
b101 )
b11 %
b11 (
#18400000
b11000 !
b11000 )
b0 %
b0 (
#18450000
b11111 !
b11111 )
b1 %
b1 (
#18500000
b110111 !
b110111 )
b10 %
b10 (
#18550000
b101 !
b101 )
b11 %
b11 (
#18600000
b11000 !
b11000 )
b0 %
b0 (
#18650000
b11111 !
b11111 )
b1 %
b1 (
#18700000
b110111 !
b110111 )
b10 %
b10 (
#18750000
b101 !
b101 )
b11 %
b11 (
#18800000
b11000 !
b11000 )
b0 %
b0 (
#18850000
b11111 !
b11111 )
b1 %
b1 (
#18900000
b110111 !
b110111 )
b10 %
b10 (
#18950000
b101 !
b101 )
b11 %
b11 (
#19000000
b11000 !
b11000 )
b0 %
b0 (
#19050000
b11111 !
b11111 )
b1 %
b1 (
#19100000
b110111 !
b110111 )
b10 %
b10 (
#19150000
b101 !
b101 )
b11 %
b11 (
#19200000
b11000 !
b11000 )
b0 %
b0 (
#19250000
b11111 !
b11111 )
b1 %
b1 (
#19300000
b110111 !
b110111 )
b10 %
b10 (
#19350000
b101 !
b101 )
b11 %
b11 (
#19400000
b11000 !
b11000 )
b0 %
b0 (
#19450000
b11111 !
b11111 )
b1 %
b1 (
#19500000
b110111 !
b110111 )
b10 %
b10 (
#19550000
b101 !
b101 )
b11 %
b11 (
#19600000
b11000 !
b11000 )
b0 %
b0 (
#19650000
b11111 !
b11111 )
b1 %
b1 (
#19700000
b110111 !
b110111 )
b10 %
b10 (
#19750000
b101 !
b101 )
b11 %
b11 (
#19800000
b11000 !
b11000 )
b0 %
b0 (
#19850000
b11111 !
b11111 )
b1 %
b1 (
#19900000
b110111 !
b110111 )
b10 %
b10 (
#19950000
b101 !
b101 )
b11 %
b11 (
#20000000
b11000 !
b11000 )
b0 %
b0 (
#20050000
b11111 !
b11111 )
b1 %
b1 (
#20100000
b110111 !
b110111 )
b10 %
b10 (
#20150000
b101 !
b101 )
b11 %
b11 (
#20200000
b11000 !
b11000 )
b0 %
b0 (
#20250000
b11111 !
b11111 )
b1 %
b1 (
#20300000
b110111 !
b110111 )
b10 %
b10 (
#20350000
b101 !
b101 )
b11 %
b11 (
#20400000
b11000 !
b11000 )
b0 %
b0 (
#20450000
b11111 !
b11111 )
b1 %
b1 (
#20500000
b110111 !
b110111 )
b10 %
b10 (
#20550000
b101 !
b101 )
b11 %
b11 (
#20600000
b11000 !
b11000 )
b0 %
b0 (
#20650000
b11111 !
b11111 )
b1 %
b1 (
#20700000
b110111 !
b110111 )
b10 %
b10 (
#20750000
b101 !
b101 )
b11 %
b11 (
#20800000
b11000 !
b11000 )
b0 %
b0 (
#20850000
b11111 !
b11111 )
b1 %
b1 (
#20900000
b110111 !
b110111 )
b10 %
b10 (
#20950000
b101 !
b101 )
b11 %
b11 (
#21000000
b11000 !
b11000 )
b0 %
b0 (
#21050000
b11111 !
b11111 )
b1 %
b1 (
#21100000
b110111 !
b110111 )
b10 %
b10 (
#21150000
b101 !
b101 )
b11 %
b11 (
#21200000
b11000 !
b11000 )
b0 %
b0 (
#21250000
b11111 !
b11111 )
b1 %
b1 (
#21300000
b110111 !
b110111 )
b10 %
b10 (
#21350000
b101 !
b101 )
b11 %
b11 (
#21400000
b11000 !
b11000 )
b0 %
b0 (
#21450000
b11111 !
b11111 )
b1 %
b1 (
#21500000
b110111 !
b110111 )
b10 %
b10 (
#21550000
b101 !
b101 )
b11 %
b11 (
#21600000
b11000 !
b11000 )
b0 %
b0 (
#21650000
b11111 !
b11111 )
b1 %
b1 (
#21700000
b110111 !
b110111 )
b10 %
b10 (
#21750000
b101 !
b101 )
b11 %
b11 (
#21800000
b11000 !
b11000 )
b0 %
b0 (
#21850000
b11111 !
b11111 )
b1 %
b1 (
#21900000
b110111 !
b110111 )
b10 %
b10 (
#21950000
b101 !
b101 )
b11 %
b11 (
#22000000
b11000 !
b11000 )
b0 %
b0 (
#22050000
b11111 !
b11111 )
b1 %
b1 (
#22100000
b110111 !
b110111 )
b10 %
b10 (
#22150000
b101 !
b101 )
b11 %
b11 (
#22200000
b11000 !
b11000 )
b0 %
b0 (
#22250000
b11111 !
b11111 )
b1 %
b1 (
#22300000
b110111 !
b110111 )
b10 %
b10 (
#22350000
b101 !
b101 )
b11 %
b11 (
#22400000
b11000 !
b11000 )
b0 %
b0 (
#22450000
b11111 !
b11111 )
b1 %
b1 (
#22500000
b110111 !
b110111 )
b10 %
b10 (
#22550000
b101 !
b101 )
b11 %
b11 (
#22600000
b11000 !
b11000 )
b0 %
b0 (
#22650000
b11111 !
b11111 )
b1 %
b1 (
#22700000
b110111 !
b110111 )
b10 %
b10 (
#22750000
b101 !
b101 )
b11 %
b11 (
#22800000
b11000 !
b11000 )
b0 %
b0 (
#22850000
b11111 !
b11111 )
b1 %
b1 (
#22900000
b110111 !
b110111 )
b10 %
b10 (
#22950000
b101 !
b101 )
b11 %
b11 (
#23000000
b11000 !
b11000 )
b0 %
b0 (
#23050000
b11111 !
b11111 )
b1 %
b1 (
#23100000
b110111 !
b110111 )
b10 %
b10 (
#23150000
b101 !
b101 )
b11 %
b11 (
#23200000
b11000 !
b11000 )
b0 %
b0 (
#23250000
b11111 !
b11111 )
b1 %
b1 (
#23300000
b110111 !
b110111 )
b10 %
b10 (
#23350000
b101 !
b101 )
b11 %
b11 (
#23400000
b11000 !
b11000 )
b0 %
b0 (
#23450000
b11111 !
b11111 )
b1 %
b1 (
#23500000
b110111 !
b110111 )
b10 %
b10 (
#23550000
b101 !
b101 )
b11 %
b11 (
#23600000
b11000 !
b11000 )
b0 %
b0 (
#23650000
b11111 !
b11111 )
b1 %
b1 (
#23700000
b110111 !
b110111 )
b10 %
b10 (
#23750000
b101 !
b101 )
b11 %
b11 (
#23800000
b11000 !
b11000 )
b0 %
b0 (
#23850000
b11111 !
b11111 )
b1 %
b1 (
#23900000
b110111 !
b110111 )
b10 %
b10 (
#23950000
b101 !
b101 )
b11 %
b11 (
#24000000
b11000 !
b11000 )
b0 %
b0 (
#24050000
b11111 !
b11111 )
b1 %
b1 (
#24100000
b110111 !
b110111 )
b10 %
b10 (
#24150000
b101 !
b101 )
b11 %
b11 (
#24200000
b11000 !
b11000 )
b0 %
b0 (
#24250000
b11111 !
b11111 )
b1 %
b1 (
#24300000
b110111 !
b110111 )
b10 %
b10 (
#24350000
b101 !
b101 )
b11 %
b11 (
#24400000
b11000 !
b11000 )
b0 %
b0 (
#24450000
b11111 !
b11111 )
b1 %
b1 (
#24500000
b110111 !
b110111 )
b10 %
b10 (
#24550000
b101 !
b101 )
b11 %
b11 (
#24600000
b11000 !
b11000 )
b0 %
b0 (
#24650000
b11111 !
b11111 )
b1 %
b1 (
#24700000
b110111 !
b110111 )
b10 %
b10 (
#24750000
b101 !
b101 )
b11 %
b11 (
#24800000
b11000 !
b11000 )
b0 %
b0 (
#24850000
b11111 !
b11111 )
b1 %
b1 (
#24900000
b110111 !
b110111 )
b10 %
b10 (
#24950000
b101 !
b101 )
b11 %
b11 (
#25000000
b11000 !
b11000 )
b0 %
b0 (
#25050000
b11111 !
b11111 )
b1 %
b1 (
#25100000
b110111 !
b110111 )
b10 %
b10 (
#25150000
b101 !
b101 )
b11 %
b11 (
#25200000
b11000 !
b11000 )
b0 %
b0 (
#25250000
b11111 !
b11111 )
b1 %
b1 (
#25300000
b110111 !
b110111 )
b10 %
b10 (
#25350000
b101 !
b101 )
b11 %
b11 (
#25400000
b11000 !
b11000 )
b0 %
b0 (
#25450000
b11111 !
b11111 )
b1 %
b1 (
#25500000
b110111 !
b110111 )
b10 %
b10 (
#25550000
b101 !
b101 )
b11 %
b11 (
#25600000
b11000 !
b11000 )
b0 %
b0 (
#25650000
b11111 !
b11111 )
b1 %
b1 (
#25700000
b110111 !
b110111 )
b10 %
b10 (
#25750000
b101 !
b101 )
b11 %
b11 (
#25800000
b11000 !
b11000 )
b0 %
b0 (
#25850000
b11111 !
b11111 )
b1 %
b1 (
#25900000
b110111 !
b110111 )
b10 %
b10 (
#25950000
b101 !
b101 )
b11 %
b11 (
#26000000
b11000 !
b11000 )
b0 %
b0 (
#26050000
b11111 !
b11111 )
b1 %
b1 (
#26100000
b110111 !
b110111 )
b10 %
b10 (
#26150000
b101 !
b101 )
b11 %
b11 (
#26200000
b11000 !
b11000 )
b0 %
b0 (
#26250000
b11111 !
b11111 )
b1 %
b1 (
#26300000
b110111 !
b110111 )
b10 %
b10 (
#26350000
b101 !
b101 )
b11 %
b11 (
#26400000
b11000 !
b11000 )
b0 %
b0 (
#26450000
b11111 !
b11111 )
b1 %
b1 (
#26500000
b110111 !
b110111 )
b10 %
b10 (
#26550000
b101 !
b101 )
b11 %
b11 (
#26600000
b11000 !
b11000 )
b0 %
b0 (
#26650000
b11111 !
b11111 )
b1 %
b1 (
#26700000
b110111 !
b110111 )
b10 %
b10 (
#26750000
b101 !
b101 )
b11 %
b11 (
#26800000
b11000 !
b11000 )
b0 %
b0 (
#26850000
b11111 !
b11111 )
b1 %
b1 (
#26900000
b110111 !
b110111 )
b10 %
b10 (
#26950000
b101 !
b101 )
b11 %
b11 (
#27000000
b11000 !
b11000 )
b0 %
b0 (
#27050000
b11111 !
b11111 )
b1 %
b1 (
#27100000
b110111 !
b110111 )
b10 %
b10 (
#27150000
b101 !
b101 )
b11 %
b11 (
#27200000
b11000 !
b11000 )
b0 %
b0 (
#27250000
b11111 !
b11111 )
b1 %
b1 (
#27300000
b110111 !
b110111 )
b10 %
b10 (
#27350000
b101 !
b101 )
b11 %
b11 (
#27400000
b11000 !
b11000 )
b0 %
b0 (
#27450000
b11111 !
b11111 )
b1 %
b1 (
#27500000
b110111 !
b110111 )
b10 %
b10 (
#27550000
b101 !
b101 )
b11 %
b11 (
#27600000
b11000 !
b11000 )
b0 %
b0 (
#27650000
b11111 !
b11111 )
b1 %
b1 (
